<svg width="249" height="48" viewBox="0 0 249 48" fill="none" xmlns="http://www.w3.org/2000/svg">
<path fill-rule="evenodd" clip-rule="evenodd" d="M40.4458 31.4462L13.6902 46.3839C12.8755 46.7397 12.0009 46.9385 11.1125 46.9697C9.37311 46.8914 7.71329 46.2187 6.41024 45.0639C5.62548 44.3571 4.99776 43.4935 4.56767 42.5288C4.13757 41.5642 3.91466 40.5201 3.91335 39.4639V8.53861C3.91335 8.51828 3.91444 8.49772 3.91555 8.47706L3.91555 8.47705C3.91667 8.45616 3.91779 8.43517 3.91779 8.41417C3.92046 8.23017 3.93023 8.04705 3.94534 7.86928C3.95512 7.75639 3.97024 7.64439 3.98535 7.53328C3.99838 7.43431 4.01349 7.33594 4.03068 7.23817C4.0529 7.11017 4.0769 6.98306 4.10623 6.85772C4.11729 6.80884 4.12987 6.7611 4.14248 6.71326L4.14248 6.71323C4.14913 6.688 4.15579 6.66275 4.16223 6.63728C4.27098 6.22482 4.41492 5.82246 4.59246 5.43461C4.64668 5.31372 4.70179 5.19461 4.76224 5.07905C4.78972 5.02486 4.8186 4.97345 4.84763 4.92175L4.85912 4.90128C5.47792 3.80134 6.36905 2.87891 7.44697 2.2225C8.52489 1.5661 9.75343 1.19776 11.0147 1.15283C12.4113 1.24389 13.769 1.65086 14.9853 2.34306L40.4458 16.5582C41.7705 17.298 42.8738 18.3779 43.6418 19.6865C44.4098 20.9951 44.8147 22.4849 44.8147 24.0022C44.8147 25.5195 44.4098 27.0093 43.6418 28.3178C42.8738 29.6264 41.7705 30.7063 40.4458 31.4462ZM17.2617 17.7771H19.8732C19.8732 17.7771 16.6137 26.0553 15.5408 28.8224C15.4019 29.2347 15.1386 29.5938 14.7871 29.8501C14.4355 30.1064 14.0131 30.2474 13.5781 30.2535H12.7932L7.89544 17.7771H11.0448L14.1506 25.6962L17.2617 17.7771ZM33.4628 20.0336C33.4639 19.7334 33.4056 19.4359 33.2913 19.1583C33.177 18.8807 33.0089 18.6284 32.7968 18.416C32.5847 18.2035 32.3326 18.0351 32.0552 17.9203C31.7778 17.8056 31.4804 17.7468 31.1801 17.7474H30.829V30.2559H33.4575L33.4628 20.0336ZM29.0746 22.1598C28.8214 22.7617 28.3676 23.2573 27.7903 23.5624C28.4207 23.7352 28.9727 24.1188 29.3545 24.6494C29.7362 25.1799 29.9246 25.8253 29.8881 26.4779C29.9263 28.4379 28.5023 30.2557 25.3708 30.2557H20.5254V17.7917H25.2836C27.8348 17.7766 28.9645 19.1944 29.1788 20.261C29.3645 20.887 29.3277 21.558 29.0746 22.1598ZM25.3023 20.0957H23.4285L23.4276 22.6824H25.3023C25.6545 22.6907 25.9956 22.5594 26.2513 22.3171C26.5069 22.0748 26.6563 21.7411 26.6667 21.389C26.6639 21.214 26.6262 21.0412 26.5557 20.8809C26.4852 20.7206 26.3835 20.576 26.2564 20.4556C26.1293 20.3351 25.9795 20.2412 25.8156 20.1794C25.6518 20.1176 25.4773 20.0892 25.3023 20.0957ZM23.417 27.9499H25.8027V27.949C26.1955 27.9428 26.5697 27.7808 26.843 27.4986C27.1163 27.2165 27.2663 26.8373 27.2601 26.4446C27.2538 26.0518 27.0918 25.6776 26.8097 25.4043C26.5275 25.131 26.1484 24.981 25.7556 24.9873H23.417V27.9499Z" fill="#004881"/>
<path d="M19.8733 17.7771H17.2617L14.1506 25.6962L11.0448 17.7771H7.89551L12.7933 30.2535H13.5782C14.0132 30.2474 14.4356 30.1065 14.7871 29.8501C15.1387 29.5938 15.402 29.2347 15.5408 28.8224C16.6137 26.0553 19.8733 17.7771 19.8733 17.7771Z" fill="white"/>
<path d="M33.4629 20.0335C33.4639 19.7333 33.4056 19.4358 33.2913 19.1582C33.177 18.8806 33.009 18.6283 32.7969 18.4158C32.5847 18.2034 32.3327 18.035 32.0553 17.9202C31.7778 17.8055 31.4804 17.7467 31.1802 17.7473H30.8291V30.2558H33.4575L33.4629 20.0335Z" fill="white"/>
<path d="M27.7903 23.5624C28.3676 23.2574 28.8214 22.7618 29.0745 22.1599C29.3277 21.558 29.3645 20.887 29.1787 20.2611C28.9645 19.1944 27.8347 17.7766 25.2836 17.7917H20.5254V30.2557H25.3707C28.5023 30.2557 29.9263 28.438 29.8881 26.478C29.9245 25.8254 29.7362 25.18 29.3545 24.6494C28.9727 24.1189 28.4206 23.7352 27.7903 23.5624ZM23.4285 20.0957H25.3023C25.4773 20.0892 25.6518 20.1177 25.8156 20.1795C25.9794 20.2413 26.1293 20.3351 26.2564 20.4556C26.3834 20.5761 26.4852 20.7207 26.5557 20.881C26.6261 21.0413 26.6639 21.214 26.6667 21.3891C26.6563 21.7412 26.5069 22.0748 26.2512 22.3171C25.9956 22.5595 25.6544 22.6908 25.3023 22.6824H23.4276L23.4285 20.0957ZM25.8027 27.95H23.4169V24.9873H25.7556C26.1484 24.9811 26.5275 25.1311 26.8097 25.4044C27.0918 25.6777 27.2538 26.0519 27.2601 26.4446C27.2663 26.8374 27.1163 27.2165 26.843 27.4987C26.5697 27.7808 26.1955 27.9428 25.8027 27.9491V27.95Z" fill="white"/>
<path d="M2.24356 39.4676V8.53422C2.24698 6.4655 3.00109 4.46833 4.36582 2.91363C5.73056 1.35893 7.61317 0.352366 9.664 0.0808885C9.28937 0.0283999 8.91162 0.00137533 8.53333 0C6.27095 0.00258787 4.10196 0.902463 2.50221 2.50221C0.902464 4.10196 0.00258787 6.27095 0 8.53333V39.4667C0.00258787 41.7291 0.902464 43.898 2.50221 45.4978C4.10196 47.0975 6.27095 47.9974 8.53333 48C8.91163 47.999 9.28941 47.972 9.664 47.9191C7.6134 47.6479 5.73092 46.6416 4.36619 45.0872C3.00146 43.5329 2.24722 41.536 2.24356 39.4676Z" fill="#CA0038"/>
<path d="M66.143 26.7362C66.1587 27.2565 66.0582 27.7738 65.8489 28.2505C65.6397 28.7271 65.3269 29.1511 64.9332 29.4918C64.1021 30.21 63.0311 30.5889 61.9332 30.5531H56.4604V17.5211H61.5617C62.6324 17.4887 63.6759 17.861 64.4844 18.5638C64.8726 18.8916 65.1815 19.3031 65.3878 19.7674C65.5941 20.2318 65.6924 20.7368 65.6755 21.2447C65.6912 21.7279 65.5972 22.2084 65.4007 22.6501C65.2041 23.0918 64.9099 23.4832 64.5404 23.7949C65.0457 24.0975 65.4609 24.5298 65.7427 25.0471C66.0245 25.5643 66.1627 26.1475 66.143 26.7362ZM59.4408 20.3131V22.6242H61.5635C61.8699 22.6242 62.1639 22.5025 62.3806 22.2858C62.5973 22.0691 62.719 21.7751 62.719 21.4687C62.719 21.1622 62.5973 20.8683 62.3806 20.6516C62.1639 20.4349 61.8699 20.3131 61.5635 20.3131H59.4408ZM61.935 27.7593C62.2658 27.7593 62.583 27.6279 62.8169 27.3941C63.0507 27.1602 63.1821 26.843 63.1821 26.5122C63.1821 26.1815 63.0507 25.8643 62.8169 25.6304C62.583 25.3965 62.2658 25.2651 61.935 25.2651H59.4444V27.7593H61.935Z" fill="#004881"/>
<path d="M75.9186 30.5528L75.2679 28.5083H70.4279L69.7763 30.5528H66.5186L70.9497 17.5208H74.7479L79.1781 30.5528H75.9186ZM71.9186 16.5901C71.9186 15.4346 72.1977 15.2123 72.7372 14.9706C72.7372 14.9706 73.0163 14.8221 72.9977 14.8399C73.0723 14.7652 73.1461 14.7288 73.1461 14.6168C73.1461 14.5279 73.0154 14.4301 72.867 14.4301C72.7036 14.4259 72.5428 14.4719 72.4063 14.5618C72.2697 14.6518 72.1641 14.7814 72.1034 14.9332L70.4288 14.3181C70.6437 13.8558 70.9981 13.4725 71.4421 13.222C71.8862 12.9716 72.3975 12.8665 72.9043 12.9217C74.227 12.9217 75.0643 13.4986 75.0643 14.5039C75.0808 14.7962 75.01 15.0868 74.8609 15.3388C74.7118 15.5908 74.4912 15.7927 74.227 15.919C73.9843 16.031 73.8172 16.1421 73.8714 16.5892L71.9186 16.5901ZM71.323 25.7119H74.3754L72.8483 20.9279L71.323 25.7119Z" fill="#004881"/>
<path d="M86.5108 30.8132C85.62 30.8288 84.7354 30.6635 83.9103 30.3274C83.0853 29.9912 82.337 29.4913 81.7107 28.8577C80.446 27.5714 79.7373 25.8398 79.7373 24.0359C79.7373 22.232 80.446 20.5004 81.7107 19.2141C82.9953 17.9609 84.7188 17.2594 86.5134 17.2594C88.308 17.2594 90.0315 17.9609 91.3161 19.2141C92.5812 20.5002 93.2902 22.2319 93.2902 24.0359C93.2902 25.8399 92.5812 27.5716 91.3161 28.8577C90.6892 29.4919 89.94 29.9923 89.114 30.3284C88.288 30.6646 87.4024 30.8295 86.5108 30.8132ZM86.5108 27.9092C87.0108 27.9241 87.5085 27.8359 87.9729 27.6501C88.4373 27.4643 88.8585 27.1849 89.2103 26.8292C89.9165 26.0708 90.3091 25.0731 90.3091 24.0368C90.3091 23.0005 89.9165 22.0027 89.2103 21.2443C88.8585 20.8887 88.4373 20.6093 87.9729 20.4235C87.5085 20.2377 87.0108 20.1495 86.5108 20.1643C86.0081 20.1498 85.5078 20.238 85.0406 20.4238C84.5733 20.6095 84.1489 20.8887 83.7934 21.2443C83.0985 22.0084 82.7135 23.004 82.7135 24.0368C82.7135 25.0696 83.0985 26.0652 83.7934 26.8292C84.1489 27.1849 84.5733 27.4641 85.0406 27.6498C85.5078 27.8355 86.0081 27.9238 86.5108 27.9092Z" fill="#004881"/>
<path d="M106.689 17.5211H109.67V30.5531H106.692V25.3771H102.596V30.5531H99.617V17.5211H102.596V22.5087H106.692L106.689 17.5211Z" fill="#004881"/>
<path d="M111.901 17.5211H114.879V30.5531H111.901V17.5211Z" fill="#004881"/>
<path d="M120.092 27.6849H125.305V30.5524H117.114V17.5204H125.212V20.3871H120.093V22.5471H124.747V25.3738H120.093L120.092 27.6849ZM121.079 15.6218L120.465 16.5898H117.951L119.794 13.9835H122.344L124.187 16.5898H121.674L121.079 15.6218ZM123.257 14.7098C123.257 13.6306 123.517 13.4253 124.02 13.1986C124.02 13.1986 124.281 13.0502 124.262 13.068C124.318 12.9933 124.393 12.9791 124.393 12.8635C124.393 12.7746 124.281 12.6964 124.132 12.6964C123.98 12.6885 123.829 12.7294 123.701 12.8132C123.573 12.8969 123.475 13.0191 123.421 13.1622L121.858 12.5853C122.062 12.1571 122.394 11.8022 122.808 11.5691C123.221 11.3359 123.696 11.2358 124.169 11.2822C125.397 11.2822 126.179 11.8218 126.179 12.7533C126.195 13.0265 126.13 13.2982 125.99 13.5337C125.851 13.7692 125.644 13.9577 125.397 14.0751C125.173 14.1871 125.025 14.2795 125.061 14.708L123.257 14.7098Z" fill="#004881"/>
<path d="M140.012 17.5211V30.5531H137.033V22.9753L133.663 28.5051H133.327L129.957 22.9753V30.5531H126.979V17.5211H129.957L133.494 23.3113L137.031 17.5211H140.012Z" fill="#004881"/>
<path d="M150.026 30.5531L145.781 17.5211H149.039L151.924 27.1087L154.806 17.5211H158.064L153.824 30.5531H150.026Z" fill="#004881"/>
<path d="M159.183 17.5211H162.162V30.5531H159.183V17.5211Z" fill="#004881"/>
<path d="M167.375 27.6856H172.588V30.5531H164.396V17.5211H172.494V20.3887H167.375V22.5487H172.029V25.378H167.375V27.6856Z" fill="#004881"/>
<path d="M183.012 17.5211V20.3887H179.661V30.5531H176.683V20.3878H173.331V17.5211H183.012Z" fill="#004881"/>
<path d="M184.315 17.5211H187.294V30.5531H184.315V17.5211Z" fill="#004881"/>
<path d="M196.788 17.5211H199.767V30.5531H197.533L192.507 23.4785V30.5531H189.529V17.5211H191.762L196.789 24.5958L196.788 17.5211Z" fill="#004881"/>
<path d="M211.68 26.7362C211.695 27.2565 211.595 27.7738 211.386 28.2505C211.176 28.7271 210.863 29.1511 210.47 29.4918C209.64 30.2088 208.571 30.5877 207.474 30.5531H202.001V17.5211H207.102C208.173 17.4887 209.216 17.861 210.025 18.5638C210.413 18.8917 210.721 19.3032 210.928 19.7675C211.134 20.2318 211.232 20.7369 211.216 21.2447C211.231 21.7279 211.137 22.2084 210.941 22.6501C210.744 23.0918 210.45 23.4832 210.081 23.7949C210.585 24.0979 211 24.5305 211.281 25.0477C211.562 25.5649 211.7 26.1479 211.68 26.7362ZM204.978 20.3131V22.6242H207.101C207.407 22.6242 207.701 22.5025 207.918 22.2858C208.135 22.0691 208.257 21.7751 208.257 21.4687C208.257 21.1622 208.135 20.8683 207.918 20.6516C207.701 20.4349 207.407 20.3131 207.101 20.3131H204.978ZM207.472 27.7593C207.803 27.7593 208.12 27.6279 208.354 27.3941C208.588 27.1602 208.72 26.843 208.72 26.5122C208.72 26.1815 208.588 25.8643 208.354 25.6304C208.12 25.3965 207.803 25.2651 207.472 25.2651H204.978V27.7593H207.472Z" fill="#004881"/>
<path d="M221.453 30.5531L220.802 28.5087H215.961L215.31 30.5531H212.052L216.483 17.5211H220.28L224.712 30.5531H221.453ZM216.855 25.7087H219.908L218.382 20.9238L216.855 25.7087Z" fill="#004881"/>
<path d="M233.09 17.5211H236.068V30.5531H233.834L228.808 23.4785V30.5531H225.829V17.5211H228.063L233.09 24.5958V17.5211Z" fill="#004881"/>
<path d="M248.842 30.5531H245.454L241.284 24.5211V30.5531H238.305V17.5211H241.284V23.1807L245.268 17.5211H248.655L244.261 23.8696L248.842 30.5531Z" fill="#004881"/>
</svg>
